{
	"credit": "Made with Blockbench",
	"parent": "block/block",
	"textures": {
		"particle": "block/cobblestone",
		"cobble": "block/cobblestone",
		"moss": "block/moss_block",
		"mossy_cobble": "block/mossy_cobblestone",
		"stone": "block/stone",
		"tuff": "block/tuff"
	},
	"elements": [
		{
			"name": "bed",
			"from": [4, 0, 4],
			"to": [12, 2, 12],
			"faces": {
				"up": {"uv": [4, 4, 12, 12], "texture": "#moss"},
				"down": {"uv": [4, 4, 12, 12], "texture": "#stone"}
			}
		},
		{
			"name": "rock1",
			"from": [7, 0, 0],
			"to": [12, 5, 4],
			"faces": {
				"north": {"uv": [3, 11, 8, 16], "texture": "#stone"},
				"east": {"uv": [5, 3, 9, 8], "texture": "#stone"},
				"south": {"uv": [4, 11, 9, 16], "texture": "#stone"},
				"west": {"uv": [1, 5, 5, 10], "texture": "#stone"},
				"up": {"uv": [7, 1, 12, 5], "texture": "#stone"},
				"down": {"uv": [7, 12, 12, 16], "texture": "#stone"}
			}
		},
		{
			"name": "rock2",
			"from": [3, 0, 1],
			"to": [7, 3, 5],
			"faces": {
				"north": {"uv": [4, 12, 8, 15], "texture": "#cobble"},
				"east": {"uv": [2, 3, 6, 6], "texture": "#cobble"},
				"south": {"uv": [6, 3, 10, 6], "texture": "#cobble"},
				"west": {"uv": [12, 5, 16, 8], "texture": "#cobble"},
				"up": {"uv": [6, 12, 10, 16], "texture": "#cobble"},
				"down": {"uv": [3, 11, 7, 15], "texture": "#stone"}
			}
		},
		{
			"name": "rock3",
			"from": [1, 0, 3],
			"to": [4, 5, 8],
			"faces": {
				"north": {"uv": [1, 5, 4, 10], "texture": "#tuff"},
				"east": {"uv": [0, 11, 5, 6], "texture": "#tuff"},
				"south": {"uv": [10, 7, 13, 12], "texture": "#tuff"},
				"west": {"uv": [6, 9, 11, 14], "texture": "#tuff"},
				"up": {"uv": [12, 6, 15, 1], "texture": "#tuff"},
				"down": {"uv": [1, 8, 4, 13], "texture": "#stone"}
			}
		},
		{
			"name": "rock4",
			"from": [0, 0, 8],
			"to": [4, 4, 11],
			"faces": {
				"north": {"uv": [7, 8, 11, 12], "texture": "#mossy_cobble"},
				"east": {"uv": [2, 12, 5, 16], "texture": "#mossy_cobble"},
				"south": {"uv": [12, 4, 16, 8], "texture": "#mossy_cobble"},
				"west": {"uv": [13, 4, 16, 8], "texture": "#mossy_cobble"},
				"up": {"uv": [11, 8, 15, 11], "texture": "#mossy_cobble"},
				"down": {"uv": [0, 5, 4, 8], "texture": "#stone"}
			}
		},
		{
			"name": "rock5",
			"from": [2, 0, 11],
			"to": [5, 3, 15],
			"faces": {
				"north": {"uv": [4, 12, 7, 15], "texture": "#cobble"},
				"east": {"uv": [3, 1, 7, 4], "texture": "#cobble"},
				"south": {"uv": [8, 12, 11, 15], "texture": "#cobble"},
				"west": {"uv": [5, 12, 9, 15], "texture": "#cobble"},
				"up": {"uv": [3, 7, 6, 11], "texture": "#cobble"},
				"down": {"uv": [2, 1, 5, 5], "texture": "#stone"}
			}
		},
		{
			"name": "rock6",
			"from": [4, 0, 12],
			"to": [10, 6, 16],
			"faces": {
				"north": {"uv": [1, 4, 7, 10], "texture": "#stone"},
				"east": {"uv": [1, 8, 5, 14], "texture": "#stone"},
				"south": {"uv": [4, 10, 10, 16], "texture": "#stone"},
				"west": {"uv": [1, 5, 5, 11], "texture": "#stone"},
				"up": {"uv": [4, 12, 10, 16], "texture": "#stone"},
				"down": {"uv": [4, 0, 10, 4], "texture": "#stone"}
			}
		},
		{
			"name": "rock7",
			"from": [10, 0, 11],
			"to": [16, 3, 15],
			"faces": {
				"north": {"uv": [2, 10, 8, 13], "texture": "#tuff"},
				"east": {"uv": [5, 11, 9, 14], "texture": "#tuff"},
				"south": {"uv": [6, 10, 12, 13], "texture": "#tuff"},
				"west": {"uv": [4, 8, 8, 11], "texture": "#tuff"},
				"up": {"uv": [6, 7, 12, 11], "texture": "#tuff"},
				"down": {"uv": [10, 1, 16, 5], "texture": "#stone"}
			}
		},
		{
			"name": "rock8",
			"from": [12, 0, 8],
			"to": [15, 5, 13],
			"faces": {
				"north": {"uv": [6, 5, 9, 10], "texture": "#cobble"},
				"east": {"uv": [4, 6, 9, 11], "texture": "#cobble"},
				"south": {"uv": [7, 7, 10, 12], "texture": "#cobble"},
				"west": {"uv": [1, 3, 6, 8], "texture": "#cobble"},
				"up": {"uv": [1, 11, 4, 16], "texture": "#cobble"},
				"down": {"uv": [12, 3, 15, 8], "texture": "#stone"}
			}
		},
		{
			"name": "rock9",
			"from": [12, 0, 6],
			"to": [14, 3, 8],
			"faces": {
				"north": {"uv": [11, 9, 13, 12], "texture": "#cobble"},
				"east": {"uv": [2, 9, 4, 12], "texture": "#cobble"},
				"south": {"uv": [1, 1, 3, 4], "texture": "#cobble"},
				"west": {"uv": [4, 9, 2, 6], "texture": "#cobble"},
				"up": {"uv": [4, 10, 2, 8], "texture": "#cobble"},
				"down": {"uv": [12, 8, 14, 10], "texture": "#stone"}
			}
		},
		{
			"name": "rock10",
			"from": [11, 0, 2],
			"to": [15, 4, 6],
			"faces": {
				"north": {"uv": [1, 12, 5, 16], "texture": "#mossy_cobble"},
				"east": {"uv": [9, 8, 13, 12], "texture": "#mossy_cobble"},
				"south": {"uv": [12, 0, 16, 4], "texture": "#mossy_cobble"},
				"west": {"uv": [10, 8, 14, 12], "texture": "#mossy_cobble"},
				"up": {"uv": [11, 3, 15, 7], "texture": "#mossy_cobble"},
				"down": {"uv": [11, 10, 15, 14], "texture": "#stone"}
			}
		}
	],
	"groups": [
		{
			"name": "nest",
			"origin": [8, 8, 8],
			"color": 0,
			"children": [0, 1, 2, 3, 4, 5, 6, 7, 8, 9, 10]
		}
	]
}