{
	"credit": "Made with Blockbench",
	"texture_size": [32, 32],
	"textures": {
		"35": "block/elixir"
	},
	"elements": [
		{
			"from": [6, 0, 5],
			"to": [10, 7, 7],
			"rotation": {"angle": 0, "axis": "y", "origin": [6, 0, 2]},
			"faces": {
				"north": {"uv": [0, 4, 2, 7.5], "texture": "#35"},
				"east": {"uv": [4, 8, 5, 11.5], "texture": "#35"},
				"south": {"uv": [4, 0, 6, 3.5], "texture": "#35"},
				"west": {"uv": [7, 8, 8, 11.5], "texture": "#35"},
				"up": {"uv": [12, 9, 10, 8], "texture": "#35"},
				"down": {"uv": [12, 9, 10, 10], "texture": "#35"}
			}
		},
		{
			"from": [6, 0, 7],
			"to": [10, 2, 11],
			"rotation": {"angle": 0, "axis": "y", "origin": [6, 0, 2]},
			"faces": {
				"north": {"uv": [10, 10, 12, 11], "texture": "#35"},
				"east": {"uv": [11, 1.5, 13, 2.5], "texture": "#35"},
				"south": {"uv": [11, 2.5, 13, 3.5], "texture": "#35"},
				"west": {"uv": [11, 3.5, 13, 4.5], "texture": "#35"},
				"up": {"uv": [7, 5.5, 5, 3.5], "texture": "#35"},
				"down": {"uv": [7, 5.5, 5, 7.5], "texture": "#35"}
			}
		},
		{
			"from": [6, 2.6, 7],
			"to": [10, 3.6, 11],
			"rotation": {"angle": 0, "axis": "y", "origin": [6, 0, 2]},
			"faces": {
				"north": {"uv": [11, 7.5, 13, 8], "texture": "#35"},
				"east": {"uv": [11.5, 1, 13.5, 1.5], "texture": "#35"},
				"south": {"uv": [3, 11.5, 5, 12], "texture": "#35"},
				"west": {"uv": [5, 11.5, 7, 12], "texture": "#35"},
				"up": {"uv": [8, 2, 6, 0], "texture": "#35"},
				"down": {"uv": [9, 2, 7, 4], "texture": "#35"}
			}
		},
		{
			"from": [6, 4.6, 7],
			"to": [10, 5.6, 11],
			"rotation": {"angle": 0, "axis": "y", "origin": [6, 0, 2]},
			"faces": {
				"north": {"uv": [11.5, 11, 13.5, 11.5], "texture": "#35"},
				"east": {"uv": [11.5, 11.5, 13.5, 12], "texture": "#35"},
				"south": {"uv": [3, 12, 5, 12.5], "texture": "#35"},
				"west": {"uv": [5, 12, 7, 12.5], "texture": "#35"},
				"up": {"uv": [9, 6, 7, 4], "texture": "#35"},
				"down": {"uv": [9, 6, 7, 8], "texture": "#35"}
			}
		},
		{
			"from": [6, 6, 7],
			"to": [10, 8.75, 11],
			"rotation": {"angle": 0, "axis": "y", "origin": [6, 0, 2]},
			"faces": {
				"north": {"uv": [8, 8, 10, 9.5], "texture": "#35"},
				"east": {"uv": [9, 2, 11, 3.5], "texture": "#35"},
				"south": {"uv": [9, 3.5, 11, 5], "texture": "#35"},
				"west": {"uv": [9, 5, 11, 6.5], "texture": "#35"},
				"up": {"uv": [2, 9.5, 0, 7.5], "texture": "#35"},
				"down": {"uv": [7, 7.5, 5, 9.5], "texture": "#35"}
			}
		},
		{
			"from": [6.5, 2, 6.5],
			"to": [9.5, 6, 10.5],
			"rotation": {"angle": 0, "axis": "y", "origin": [6, 0, 2]},
			"faces": {
				"north": {"uv": [2, 4, 3.5, 8], "texture": "#35"},
				"east": {"uv": [0, 0, 2, 4], "texture": "#35"},
				"south": {"uv": [3.5, 4, 5, 8], "texture": "#35"},
				"west": {"uv": [2, 0, 4, 4], "texture": "#35"},
				"up": {"uv": [1.5, 11.5, 0, 9.5], "texture": "#35"},
				"down": {"uv": [6.5, 9.5, 5, 11.5], "texture": "#35"}
			}
		},
		{
			"from": [6, 0.8, 9],
			"to": [10, 2.8, 13],
			"rotation": {"angle": -45, "axis": "x", "origin": [6, 0, 2]},
			"faces": {
				"north": {"uv": [11, 4.5, 13, 5.5], "texture": "#35"},
				"east": {"uv": [11, 5.5, 13, 6.5], "texture": "#35"},
				"south": {"uv": [11, 6.5, 13, 7.5], "texture": "#35"},
				"west": {"uv": [8, 11, 10, 12], "texture": "#35"},
				"up": {"uv": [10, 2, 8, 0], "texture": "#35"},
				"down": {"uv": [4, 8, 2, 10], "texture": "#35"}
			}
		},
		{
			"from": [6.5, 1.8, 9],
			"to": [9.5, 3.8, 12],
			"rotation": {"angle": -45, "axis": "x", "origin": [6, 0, 2]},
			"faces": {
				"north": {"uv": [10, 11, 11.5, 12], "texture": "#35"},
				"east": {"uv": [0, 11.5, 1.5, 12.5], "texture": "#35"},
				"south": {"uv": [11.5, 0, 13, 1], "texture": "#35"},
				"west": {"uv": [1.5, 11.5, 3, 12.5], "texture": "#35"},
				"up": {"uv": [11.5, 1.5, 10, 0], "texture": "#35"},
				"down": {"uv": [3, 10, 1.5, 11.5], "texture": "#35"}
			}
		},
		{
			"from": [6, 10.3, 3.7],
			"to": [10, 11.3, 6.7],
			"rotation": {"angle": 22.5, "axis": "x", "origin": [6, 0, 2]},
			"faces": {
				"north": {"uv": [7, 12, 9, 12.5], "texture": "#35"},
				"east": {"uv": [12, 8.5, 13.5, 9], "texture": "#35"},
				"south": {"uv": [12, 8, 14, 8.5], "texture": "#35"},
				"west": {"uv": [9, 12, 10.5, 12.5], "texture": "#35"},
				"up": {"uv": [11, 8, 9, 6.5], "texture": "#35"},
				"down": {"uv": [10, 9.5, 8, 11], "texture": "#35"}
			}
		}
	],
	"display": {
		"thirdperson_righthand": {
			"rotation": [0, -180, 0],
			"translation": [-2, 3, 0]
		},
		"thirdperson_lefthand": {
			"rotation": [0, -180, 0],
			"translation": [-2, 3, 0],
			"scale": [-1, 1, 1]
		},
		"firstperson_righthand": {
			"translation": [0, 6, 0]
		},
		"firstperson_lefthand": {
			"translation": [0, 6, 0]
		},
		"ground": {
			"translation": [0, 4.5, 0]
		},
		"gui": {
			"rotation": [25, 45, 0],
			"translation": [0, 4, 0],
			"scale": [1.25, 1.25, 1.25]
		},
		"head": {
			"translation": [0, 19.5, 0],
			"scale": [1.65, 1.65, 1.65]
		},
		"fixed": {
			"rotation": [0, 90, 0],
			"translation": [0, 5, 0],
			"scale": [1.5, 1.5, 1.5]
		}
	},
	"groups": [
		{
			"name": "Elixir",
			"origin": [6, 0, 2],
			"color": 0,
			"children": [0, 1, 2, 3, 4, 5, 6, 7, 8]
		}
	]
}