{
	"format_version": "1.8.0",
	"animations": {
		"animation.cacnea.ground_idle": {
			"loop": true,
			"bones": {
				"torso": {
					"rotation": [-5, 0, 0]
				},
				"arm_left": {
					"rotation": [10, 0, 15]
				},
				"arm_left2": {
					"rotation": [0, 0, 20]
				},
				"arm_right": {
					"rotation": [10, 0, -15]
				},
				"arm_right2": {
					"rotation": [0, 0, -20]
				},
				"leg_left": {
					"rotation": [0, 0, -30]
				},
				"leg_right": {
					"rotation": [0, 0, 30]
				},
				"mouth": {
					"position": [0, 0, 0]
				}
			}
		}
	}
}