{
	"format_version": "1.8.0",
	"animations": {
		"animation.braixen.ground_idle": {
			"loop": true,
			"bones": {
				"torso_bottom": {
					"rotation": ["-math.sin(q.anim_time*90*2.5-45)*0.75", 0, 0]
				},
				"neck": {
					"rotation": ["10-math.sin(q.anim_time*90*2.5)*2", 0, 0]
				},
				"head": {
					"rotation": ["-5+math.sin(q.anim_time*90*2.5+45)*2", 0, 0]
				},
				"ear_ruff_right": {
					"rotation": [0, 0, "-math.sin(q.anim_time*90*2.5+45)*1"]
				},
				"ear_ruff_right2": {
					"rotation": [0, 0, "-math.sin(q.anim_time*90*2.5)*1"]
				},
				"ear_ruff_right3": {
					"rotation": [0, 0, "-math.sin(q.anim_time*90*2.5-45)*1"]
				},
				"ear_ruff_left": {
					"rotation": [0, 0, "math.sin(q.anim_time*90*2.5+45)*1"]
				},
				"ear_ruff_left2": {
					"rotation": [0, 0, "math.sin(q.anim_time*90*2.5)*1"]
				},
				"ear_ruff_left3": {
					"rotation": [0, 0, "math.sin(q.anim_time*90*2.5-45)*1"]
				},
				"arm_right": {
					"rotation": [0, "12.5-math.sin(q.anim_time*90*2.5+45)", -50]
				},
				"arm_right2": {
					"rotation": [0, -27.5, 0]
				},
				"arm_left": {
					"rotation": [0, "-12.5+math.sin(q.anim_time*90*2.5+45)*2", 50]
				},
				"arm_left2": {
					"rotation": [0, 32.5, 0]
				},
				"tail": {
					"rotation": ["5+math.sin(q.anim_time*90*2.5)*2", "math.sin(q.anim_time*90*1.25-90)*4", "math.sin(q.anim_time*90*1.25-90)*2"],
					"position": [0, 0, 0.5]
				},
				"stick_tail": {
					"rotation": [0, 0, "-math.sin(q.anim_time*90*1.25-45)*4"]
				},
				"tail2": {
					"rotation": [0, 0, "math.sin(q.anim_time*90*1.25-45)*4"]
				},
				"tail3": {
					"rotation": ["math.sin(q.anim_time*90*2.5-90)*2", 0, 0]
				},
				"tail4": {
					"rotation": ["math.sin(q.anim_time*90*2.5-135)*2", 0, 0]
				}
			}
		},
		"animation.braixen.ground_walk": {
			"loop": true,
			"animation_length": 1.58,
			"bones": {
				"torso_bottom": {
					"rotation": ["2.5-math.sin(q.anim_time*90*10-45)*1", 0, 0]
				},
				"neck": {
					"rotation": ["10-math.sin(q.anim_time*90*10)*2", "-math.sin(q.anim_time*90*5)*5", 0]
				},
				"head": {
					"rotation": ["-17.5+math.sin(q.anim_time*90*10+45)*2", 0, 0]
				},
				"arm_right": {
					"rotation": [0, "0+math.sin(q.anim_time*90*5+45)*10", "-40+math.abs(math.sin(q.anim_time*90*5)*10)"]
				},
				"arm_right2": {
					"rotation": [0, "-20+math.sin(q.anim_time*90*5)*10", 25]
				},
				"arm_left": {
					"rotation": [0, "0+math.sin(q.anim_time*90*5+45)*10", "40-math.abs(math.sin(q.anim_time*90*5)*10)"]
				},
				"arm_left2": {
					"rotation": [0, "20+math.sin(q.anim_time*90*5)*10", -25]
				},
				"tail": {
					"rotation": ["10+math.sin(q.anim_time*90*10)*2", "math.sin(q.anim_time*90*5-90)*8", "math.sin(q.anim_time*90*5-90)*2"],
					"position": [0, 0, 0.5]
				},
				"stick_tail": {
					"rotation": [0, 0, "-math.sin(q.anim_time*90*5-45)*6"]
				},
				"tail2": {
					"rotation": [0, 0, "math.sin(q.anim_time*90*5-45)*8"]
				},
				"tail3": {
					"rotation": ["math.sin(q.anim_time*90*10-90)*4", 0, 0]
				},
				"tail4": {
					"rotation": ["math.sin(q.anim_time*90*10-135)*4", 0, 0]
				},
				"body": {
					"rotation": [10, 0, 0],
					"position": [0, "0.5+math.abs(math.sin(q.anim_time*90*5-45)*1)", 2]
				},
				"torso_top": {
					"rotation": ["-math.sin(q.anim_time*90*10)*0.5", "math.sin(q.anim_time*90*5)*2", 0]
				},
				"chest": {
					"rotation": [0, "math.sin(q.anim_time*90*5)*4", 0]
				},
				"ear_right_main": {
					"rotation": [0, 17.5, 0]
				},
				"ear_ruff_right": {
					"rotation": [0, 0, "-math.sin(q.anim_time*90*10+45)*2"]
				},
				"ear_ruff_right2": {
					"rotation": [0, 0, "-math.sin(q.anim_time*90*10)*2"]
				},
				"ear_ruff_right3": {
					"rotation": [0, 0, "-math.sin(q.anim_time*90*10-45)*2"]
				},
				"ear_left_main": {
					"rotation": [0, -17.5, 0]
				},
				"ear_ruff_left": {
					"rotation": [0, 0, "math.sin(q.anim_time*90*10+45)*2"]
				},
				"ear_ruff_left2": {
					"rotation": [0, 0, "math.sin(q.anim_time*90*10)*2"]
				},
				"ear_ruff_left3": {
					"rotation": [0, 0, "math.sin(q.anim_time*90*10-45)*2"]
				},
				"leg_right": {
					"rotation": ["-math.sin(q.anim_time*90*5-90)*15", 0, 0],
					"position": [0, "math.clamp(math.sin(q.anim_time*90*5+90*0)*1.5,0,180)", 0]
				},
				"leg_right2": {
					"rotation": ["-math.sin(q.anim_time*90*5-135)*15", 0, 0]
				},
				"leg_right3": {
					"rotation": ["math.clamp(math.sin(q.anim_time*90*5-180)*25,-180,5)", 0, 0]
				},
				"leg_right4": {
					"rotation": ["-math.clamp(math.sin(q.anim_time*90*5-180)*25,-90,0)", 0, 0]
				},
				"leg_left": {
					"rotation": ["math.sin(q.anim_time*90*5-90)*15", 0, 0],
					"position": [0, "math.clamp(-math.sin(q.anim_time*90*5+90*0)*1.5,0,180)", 0]
				},
				"leg_left2": {
					"rotation": ["math.sin(q.anim_time*90*5-135)*15", 0, 0]
				},
				"leg_left3": {
					"rotation": ["-math.clamp(math.sin(q.anim_time*90*5-180)*25,-5,180)", 0, 0]
				},
				"leg_left4": {
					"rotation": ["math.clamp(math.sin(q.anim_time*90*5-180)*25,0,90)", 0, 0]
				}
			}
		},
		"animation.braixen.blink": {
			"animation_length": 0.125,
			"bones": {
				"eyelid_right": {
					"position": {
						"0.0": [-0.1, 0, -0.1],
						"0.0417": [-0.1, 0, -0.1],
						"0.0833": [0, 0, 0]
					}
				},
				"eyelid_left": {
					"position": {
						"0.0": [0.1, 0, -0.1],
						"0.0417": [0.1, 0, -0.1],
						"0.0833": [0, 0, 0]
					}
				}
			}
		}
	}
}