{
	"credit": "Made with Blockbench by dhi_holo @holo_modeller",
	"textures": {
		"particle": "block/stripped_oak_log"
	},
	"elements": [
		{
			"from": [0, 13, 0],
			"to": [16, 16, 16],
			"faces": {
				"north": {"uv": [13, 0, 16, 16], "rotation": 270, "texture": "#particle"},
				"east": {"uv": [13, 0, 16, 16], "rotation": 270, "texture": "#particle"},
				"south": {"uv": [13, 0, 16, 16], "rotation": 270, "texture": "#particle"},
				"west": {"uv": [13, 0, 16, 16], "rotation": 270, "texture": "#particle"},
				"up": {"uv": [0, 0, 16, 16], "texture": "#particle"},
				"down": {"uv": [0, 0, 16, 16], "rotation": 180, "texture": "#particle"}
			}
		},
		{
			"from": [1, 0, 1],
			"to": [3, 13, 3],
			"faces": {
				"north": {"uv": [13, 3, 15, 16], "texture": "#particle"},
				"east": {"uv": [13, 3, 15, 16], "texture": "#particle"},
				"south": {"uv": [1, 3, 3, 16], "texture": "#particle"},
				"west": {"uv": [1, 3, 3, 16], "texture": "#particle"},
				"up": {"uv": [1, 1, 3, 3], "texture": "#particle"},
				"down": {"uv": [1, 13, 3, 15], "texture": "#particle"}
			}
		},
		{
			"from": [13, 0, 1],
			"to": [15, 13, 3],
			"rotation": {"angle": 0, "axis": "y", "origin": [16, 0, 0]},
			"faces": {
				"north": {"uv": [1, 3, 3, 16], "texture": "#particle"},
				"east": {"uv": [13, 3, 15, 16], "texture": "#particle"},
				"south": {"uv": [13, 3, 15, 16], "texture": "#particle"},
				"west": {"uv": [1, 3, 3, 16], "texture": "#particle"},
				"up": {"uv": [13, 1, 15, 3], "texture": "#particle"},
				"down": {"uv": [13, 13, 15, 15], "texture": "#particle"}
			}
		},
		{
			"from": [13, 0, 13],
			"to": [15, 13, 15],
			"rotation": {"angle": 0, "axis": "y", "origin": [16, 0, 0]},
			"faces": {
				"north": {"uv": [1, 3, 3, 16], "texture": "#particle"},
				"east": {"uv": [1, 3, 3, 16], "texture": "#particle"},
				"south": {"uv": [13, 3, 15, 16], "texture": "#particle"},
				"west": {"uv": [13, 3, 15, 16], "texture": "#particle"},
				"up": {"uv": [13, 13, 15, 15], "texture": "#particle"},
				"down": {"uv": [13, 1, 15, 3], "texture": "#particle"}
			}
		},
		{
			"from": [1, 0, 13],
			"to": [3, 13, 15],
			"faces": {
				"north": {"uv": [13, 3, 15, 16], "texture": "#particle"},
				"east": {"uv": [1, 3, 3, 16], "texture": "#particle"},
				"south": {"uv": [1, 3, 3, 16], "texture": "#particle"},
				"west": {"uv": [13, 3, 15, 16], "texture": "#particle"},
				"up": {"uv": [1, 13, 3, 15], "texture": "#particle"},
				"down": {"uv": [1, 1, 3, 3], "texture": "#particle"}
			}
		}
	]
}