{
	"format_version": "1.8.0",
	"animations": {
		"animation.chesnaught.blink": {
			"animation_length": 0.16667,
			"bones": {
				"eyelid_left": {
					"position": {
						"0.0": [0.1, 0, -0.1],
						"0.125": [0.1, 0, -0.1],
						"0.1667": [0, 0, 0]
					}
				},
				"eyelid_right": {
					"position": {
						"0.0": [-0.1, 0, -0.1],
						"0.125": [-0.1, 0, -0.1],
						"0.1667": [0, 0, 0]
					}
				}
			}
		},
		"animation.chesnaught.cry": {
			"animation_length": 1.5,
			"bones": {
				"neck": {
					"rotation": {
						"0.0": [0, 0, 0],
						"0.25": [10, 0, 0],
						"1.25": [10, 0, 0],
						"1.5": [0, 0, 0]
					}
				},
				"mouth": {
					"position": {
						"0.0": [0, 0, 0],
						"0.25": [0, -2, 0],
						"1.25": [0, -2, 0],
						"1.5": [0, 0, 0]
					}
				},
				"mouth2": {
					"position": {
						"0.0": [0, 0, 0],
						"0.25": [0, -5, 0],
						"1.25": [0, -5, 0],
						"1.5": [0, 0, 0]
					}
				},
				"jaw": {
					"position": {
						"0.0": [0, 0, 0],
						"0.25": [0, -3, 0],
						"1.25": [0, -3, 0],
						"1.5": [0, 0, 0]
					}
				},
				"head": {
					"rotation": {
						"0.0": [0, 0, 0],
						"0.25": [-15, 0, 0],
						"1.25": [-15, 0, 0],
						"1.5": [0, 0, 0]
					}
				},
				"head2": {
					"rotation": {
						"0.0": [0, 0, 0],
						"0.25": [-15, 0, 0],
						"1.25": [-15, 0, 0],
						"1.5": [0, 0, 0]
					}
				},
				"mouth_closed2": {
					"position": {
						"0.25": [0, 0, -0.1],
						"0.3333": [0, 0, 0],
						"1.1667": [0, 0, 0],
						"1.25": [0, 0, -0.1]
					}
				},
				"mouth_open2": {
					"position": {
						"0.0": [0, 0, 0.1],
						"0.25": [0, 0, 0],
						"1.25": [0, 0, 0],
						"1.5": [0, 0, 0.1]
					}
				},
				"head3": {
					"rotation": {
						"0.0": [0, 0, 0],
						"0.25": [-15, 0, 0],
						"1.25": [-15, 0, 0],
						"1.5": [0, 0, 0]
					}
				},
				"mouth_closed3": {
					"position": {
						"0.25": [0, 0, -0.1],
						"0.3333": [0, 0, 0],
						"1.1667": [0, 0, 0],
						"1.25": [0, 0, -0.1]
					}
				},
				"mouth_open3": {
					"position": {
						"0.0": [0, 0, 0.1],
						"0.25": [0, 0, 0],
						"1.25": [0, 0, 0],
						"1.5": [0, 0, 0.1]
					}
				},
				"mouth_open": {
					"position": {
						"0.0": [0, 0, 0],
						"0.25": [0, 0, -0.1],
						"1.25": [0, 0, -0.1],
						"1.5": [0, 0, 0]
					}
				},
				"mouth_closed": {
					"position": {
						"0.25": [0, 0, 0],
						"0.3333": [0, 0, 0.1],
						"1.1667": [0, 0, 0.1],
						"1.25": [0, 0, 0]
					}
				}
			}
		},
		"animation.chesnaught.ground_idle": {
			"loop": true,
			"bones": {
				"tail": {
					"rotation": [-25, 0, 0]
				},
				"tail2": {
					"rotation": [25, 0, 0]
				},
				"arm_right": {
					"rotation": [0, -32.5, -37.5]
				},
				"arm_right2": {
					"rotation": [0, -42.5, 0]
				},
				"finger_right": {
					"rotation": [0, 0, -17.5]
				},
				"finger_right2": {
					"rotation": [0, 0, -22.5]
				},
				"hand_left": {
					"rotation": [0, 17.5, 0]
				},
				"hand_right": {
					"rotation": [0, -17.5, 0]
				},
				"leg_left": {
					"rotation": [0, -7.5, 0]
				},
				"leg_right": {
					"rotation": [0, 7.5, 0]
				},
				"finger_right3": {
					"rotation": [0, 0, -17.5]
				},
				"torso": {
					"rotation": [2.5, 0, 0]
				},
				"finger_right4": {
					"rotation": [0, 0, -22.5]
				},
				"finger_right5": {
					"rotation": [17.5, 0, 0]
				},
				"finger_right6": {
					"rotation": [22.5, 0, 0]
				},
				"tail3": {
					"rotation": [12.5, 0, 0]
				},
				"tail4": {
					"rotation": [22.5, 0, 0]
				},
				"shell": {
					"rotation": [-7.5, 0, 0]
				},
				"arm_left": {
					"rotation": [0, 32.5, 37.5]
				},
				"arm_left2": {
					"rotation": [0, 42.5, 0]
				},
				"finger_left": {
					"rotation": [0, 0, 17.5]
				},
				"finger_left2": {
					"rotation": [0, 0, 22.5]
				},
				"finger_left3": {
					"rotation": [0, 0, 17.5]
				},
				"finger_left4": {
					"rotation": [0, 0, 22.5]
				},
				"finger_left5": {
					"rotation": [17.5, 0, 0]
				},
				"finger_left6": {
					"rotation": [22.5, 0, 0]
				}
			}
		},
		"animation.chesnaught.shield": {
			"loop": true,
			"bones": {
				"arm_right": {
					"rotation": [26.7244, -70.44173, -39.75368],
					"position": [-2, 0, -2]
				},
				"arm_right2": {
					"rotation": [84.83683, -71.84676, -135.11939]
				},
				"finger_right5": {
					"rotation": [30, 0, 0]
				},
				"finger_right6": {
					"rotation": [37.5, 0, 0]
				},
				"tail": {
					"rotation": [-25, 0, 0]
				},
				"tail2": {
					"rotation": [25, 0, 0]
				},
				"tail3": {
					"rotation": [12.5, 0, 0]
				},
				"tail4": {
					"rotation": [22.5, 0, 0]
				},
				"shield_right": {
					"rotation": [0, -90, 0]
				},
				"shield_right11": {
					"position": [2, 0, 0]
				},
				"shield_right12": {
					"position": [2, 0, 0]
				},
				"shield_right13": {
					"position": [2, 0, 0]
				},
				"shield_right14": {
					"position": [2, 0, 0]
				},
				"shield_right15": {
					"position": [0, 0, 0]
				},
				"shield_right16": {
					"position": [1, 0, 0]
				},
				"shield_right2": {
					"rotation": [0, 90, 0]
				},
				"shield_right3": {
					"position": [2, 0, 0]
				},
				"shield_right4": {
					"position": [2, 0, 0]
				},
				"shield_right5": {
					"position": [2, 0, 0]
				},
				"shield_right6": {
					"position": [1, 0, 0]
				},
				"shield_right7": {
					"position": [1, 0, 0]
				},
				"shield_right8": {
					"position": [1, 0, 0]
				},
				"arm_left": {
					"rotation": [26.7244, 70.44173, 39.75368],
					"position": [2, 0, -2]
				},
				"arm_left2": {
					"rotation": [84.83683, 71.84676, 135.11939]
				},
				"finger_left5": {
					"rotation": [30, 0, 0]
				},
				"finger_left6": {
					"rotation": [37.5, 0, 0]
				},
				"shield_left": {
					"rotation": [0, 90, 0]
				},
				"shield_left11": {
					"position": [-2, 0, 0]
				},
				"shield_left12": {
					"position": [-2, 0, 0]
				},
				"shield_left13": {
					"position": [-2, 0, 0]
				},
				"shield_left14": {
					"position": [-2, 0, 0]
				},
				"shield_left15": {
					"position": [0, 0, 0]
				},
				"shield_left16": {
					"position": [-1, 0, 0]
				},
				"shield_left2": {
					"rotation": [0, -90, 0]
				},
				"shield_left3": {
					"position": [-2, 0, 0]
				},
				"shield_left4": {
					"position": [-2, 0, 0]
				},
				"shield_left5": {
					"position": [-2, 0, 0]
				},
				"shield_left6": {
					"position": [-1, 0, 0]
				},
				"shield_left7": {
					"position": [-1, 0, 0]
				},
				"shield_left8": {
					"position": [-1, 0, 0]
				}
			}
		},
		"animation.chesnaught.shield_test": {
			"animation_length": 1.5,
			"bones": {
				"arm_right": {
					"rotation": {
						"0.0": [0, 0, 0],
						"1.0": [26.7244, -70.44173, -39.75368]
					},
					"position": {
						"0.0": [0, 0, 0],
						"1.0": [-2, 0, -2]
					}
				},
				"arm_right2": {
					"rotation": {
						"0.3333": [0, 0, 0],
						"1.0": [84.83683, -71.84676, -135.11939]
					}
				},
				"shield_right2": {
					"rotation": {
						"0.0": [0, 0, 0],
						"1.0": [0, 90, 0]
					}
				},
				"shield_right": {
					"rotation": {
						"0.0": [0, 0, 0],
						"1.0": [0, -90, 0]
					}
				},
				"shield_right11": {
					"position": {
						"0.0": [0, 0, 0],
						"0.2917": [2, 0, 0]
					}
				},
				"shield_right12": {
					"position": {
						"0.375": [0, 0, 0],
						"0.4583": [2, 0, 0]
					}
				},
				"shield_right13": {
					"position": {
						"0.4583": [0, 0, 0],
						"0.5417": [2, 0, 0]
					}
				},
				"shield_right14": {
					"position": {
						"0.5833": [0, 0, 0],
						"0.625": [2, 0, 0]
					}
				},
				"shield_right15": {
					"position": {
						"0.625": [0, 0, 0],
						"0.6667": [0, 0, 0]
					}
				},
				"shield_right16": {
					"position": {
						"0.75": [0, 0, 0],
						"0.7917": [1, 0, 0]
					}
				},
				"shield_right3": {
					"position": {
						"0.0": [0, 0, 0],
						"0.2917": [2, 0, 0]
					}
				},
				"shield_right4": {
					"position": {
						"0.375": [0, 0, 0],
						"0.4583": [2, 0, 0]
					}
				},
				"shield_right5": {
					"position": {
						"0.4583": [0, 0, 0],
						"0.5417": [2, 0, 0]
					}
				},
				"shield_right6": {
					"position": {
						"0.5833": [0, 0, 0],
						"0.625": [1, 0, 0]
					}
				},
				"shield_right7": {
					"position": {
						"0.625": [0, 0, 0],
						"0.6667": [0, 0, 0]
					}
				},
				"shield_right8": {
					"position": {
						"0.75": [0, 0, 0],
						"0.7917": [1, 0, 0]
					}
				},
				"arm_left": {
					"rotation": {
						"0.0": [0, 0, 0],
						"1.0": [26.7244, 70.44173, 39.75368]
					},
					"position": {
						"0.0": [0, 0, 0],
						"1.0": [2, 0, -2]
					}
				},
				"arm_left2": {
					"rotation": {
						"0.3333": [0, 0, 0],
						"1.0": [84.83683, 71.84676, 135.11939]
					}
				},
				"shield_left": {
					"rotation": {
						"0.0": [0, 0, 0],
						"1.0": [0, 90, 0]
					}
				},
				"shield_left11": {
					"position": {
						"0.0": [0, 0, 0],
						"0.2917": [-2, 0, 0]
					}
				},
				"shield_left12": {
					"position": {
						"0.375": [0, 0, 0],
						"0.4583": [-2, 0, 0]
					}
				},
				"shield_left13": {
					"position": {
						"0.4583": [0, 0, 0],
						"0.5417": [-2, 0, 0]
					}
				},
				"shield_left14": {
					"position": {
						"0.5833": [0, 0, 0],
						"0.625": [-2, 0, 0]
					}
				},
				"shield_left15": {
					"position": {
						"0.625": [0, 0, 0],
						"0.6667": [0, 0, 0]
					}
				},
				"shield_left16": {
					"position": {
						"0.75": [0, 0, 0],
						"0.7917": [-1, 0, 0]
					}
				},
				"shield_left2": {
					"rotation": {
						"0.0": [0, 0, 0],
						"1.0": [0, -90, 0]
					}
				},
				"shield_left3": {
					"position": {
						"0.0": [0, 0, 0],
						"0.2917": [-2, 0, 0]
					}
				},
				"shield_left4": {
					"position": {
						"0.375": [0, 0, 0],
						"0.4583": [-2, 0, 0]
					}
				},
				"shield_left5": {
					"position": {
						"0.4583": [0, 0, 0],
						"0.5417": [-2, 0, 0]
					}
				},
				"shield_left6": {
					"position": {
						"0.5833": [0, 0, 0],
						"0.625": [-1, 0, 0]
					}
				},
				"shield_left7": {
					"position": {
						"0.625": [0, 0, 0],
						"0.6667": [-1, 0, 0]
					}
				},
				"shield_left8": {
					"position": {
						"0.75": [0, 0, 0],
						"0.7917": [-1, 0, 0]
					}
				}
			}
		}
	}
}